{
	"links": [{
		"text": "GFSC SDM SUMMIT",
		"url": "https://www.cgi.com"
	}, {
		"text": "GFSC SDM Configuration Management",
		"url": "https://www.cgi.com"
	}, {
		"text": "Update DevNet Env Info",
		"url": "https://www.cgi.com"
	}, {
		"text": "Splunk Search Head",
		"url": "https://www.cgi.com"
	}, {
		"text": "Merant Tracker",
		"url": "https://www.cgi.com"
	},{
		"text": "HP Quality Center",
		"url": "https://www.cgi.com"
	}, {
		"text": "CGI Tech Info",
		"url": "https://www.cgi.com"
	},{
		"text": "Environment Detailed Specs",
		"url": "https://www.cgi.com"
	}, {
		"text": "VersionManager",
		"url": "https://www.cgi.com"
	},{
		"text": "NetApp OnCommand",
		"url": "https://www.cgi.com"
	}, {
		"text": "Database Filler List",
		"url": "https://www.cgi.com"
	}, {
		"text": "Database/Filer List",
		"url": "https://www.cgi.com"
	}, {
		"text": "Momentum Environment List",
		"url": "https://www.cgi.com"
	}, {
		"text": "Server Hardware Specs",
		"url": "https://www.cgi.com"
	}, {
		"text": "Server Software Specs",
		"url": "https://www.cgi.com"
	}, {
		"text": "Server Drive Specs",
		"url": "https://www.cgi.com"
	},{
		"text": "Server NIC Specs",
		"url": "https://www.cgi.com"
	}]
}